{
  "variables": {
    "build_number": "{{env `BUILD_NUMBER`}}",
    "winrm_password": "MyF@v0uriteG@me5",
    "aws_region": "us-east-1",
    "instance_type": "t3.large",
    "subnet_id": "subnet-01f2d8efab592eaa0",
    "vpc_id": "vpc-09d4b2cdeb10a02cb"
  },
  "builders": [
    {
      "type": "amazon-ebs",
      "region": "{{user `aws_region`}}",
      "source_ami_filter": {
        "filters": {
          "virtualization-type": "hvm",
          "name": "Windows_Server-2019-English-Full-Base*",
          "root-device-type": "ebs"
        },
        "owners": ["self", "amazon"],
        "most_recent": true
      },
      "ami_name": "Base v{{user `build_number`}} Windows2019 {{timestamp}}",
      "ami_description": "Windows 2019 Base",
      "ami_virtualization_type": "hvm",
      "associate_public_ip_address": true,
      "instance_type": "{{ user `instance_type` }}",
      "user_data_file": "{{template_dir}}/bootstrap_win.txt",
      "communicator": "winrm",
      "spot_price": "auto",
      "winrm_username": "Administrator",
      "winrm_timeout": "10m",
      "winrm_password": "{{ user `winrm_password` }}",

      "vpc_id": "{{ user `vpc_id` }}",
      "subnet_id": "{{ user `subnet_id` }}",
      "run_tags": {
        "Name": "amazon-windows-java",
        "Application": "base"
      },
      "tags": {
        "OS_Version": "Windows Server 2019",
        "Version": "{{user `build_number`}}",
        "Application": "Base Image",
        "Runner": "EC2"
      }
    }
  ],
  "provisioners": [
    {
      "type": "powershell",
      "inline": [
        "[Net.ServicePointManager]::SecurityProtocol = [Net.SecurityProtocolType]::Tls12",
        "iex ((new-object net.webclient).DownloadString('https://chocolatey.org/install.ps1'))|out-null"
      ]
    },
    {
      "type": "powershell",
      "inline": ["choco install javaruntime -y -force"]
    }
  ]
}